{
  "images" : [
    {
      "idiom" : "universal",
      "scale" : "1x"
    },
    {
      "idiom" : "universal",
      "filename" : "{EB7772A5-C065-AA74-4E3E-C668011D3464}-1.png",
      "scale" : "2x"
    },
    {
      "idiom" : "universal",
      "filename" : "{EB7772A5-C065-AA74-4E3E-C668011D3464}.png",
      "scale" : "3x"
    }
  ],
  "info" : {
    "version" : 1,
    "author" : "xcode"
  }
}