{
  "images" : [
    {
      "idiom" : "universal",
      "scale" : "1x"
    },
    {
      "resizing" : {
        "mode" : "9-part",
        "center" : {
          "mode" : "tile",
          "width" : 65,
          "height" : 11
        },
        "cap-insets" : {
          "bottom" : 24,
          "top" : 45,
          "right" : 73,
          "left" : 60
        }
      },
      "idiom" : "universal",
      "filename" : "对话气泡背景@2x.png",
      "scale" : "2x"
    },
    {
      "resizing" : {
        "mode" : "9-part",
        "center" : {
          "mode" : "tile",
          "width" : 72,
          "height" : 20
        },
        "cap-insets" : {
          "bottom" : 34,
          "top" : 66,
          "right" : 123,
          "left" : 102
        }
      },
      "idiom" : "universal",
      "filename" : "对话气泡背景@3x.png",
      "scale" : "3x"
    }
  ],
  "info" : {
    "version" : 1,
    "author" : "xcode"
  }
}